{
    "$schema": "https://schemas.wp.org/trunk/theme.json",
    "version": 2,
    "settings": {
        "border": {
            "radius": false,
            "color": false,
            "style": false,
            "width": false
        },
        "color": {
            "custom": true,
            "customGradient": true,
            "link": false,
            "palette": [
				{
					"color": "#f9f9f9",
					"name": "Base",
					"slug": "base"
				},
				{
					"color": "#ffffff",
					"name": "Base Two",
					"slug": "base-2"
				},
				{
					"color": "#111111",
					"name": "Contrast",
					"slug": "contrast"
				},
				{
					"color": "#636363",
					"name": "Contrast Two",
					"slug": "contrast-2"
				},
				{
					"color": "#A4A4A4",
					"name": "Contrast Three",
					"slug": "contrast-3"
				},
				{
					"color": "#cfcabe",
					"name": "Accent",
					"slug": "accent"
				},
				{
					"color": "#c2a990",
					"name": "Accent Two",
					"slug": "accent-2"
				},
				{
					"color": "#d8613c",
					"name": "Accent Three",
					"slug": "accent-3"
				},
				{
					"color": "#b1c5a4",
					"name": "Accent Four",
					"slug": "accent-4"
				},
				{
					"color": "#b5bdbc",
					"name": "Accent Five",
					"slug": "accent-5"
				}
			],
            "text": true,
            "background": true,
            "defaultGradients": true,
            "defaultPalette": true
        },
        "layout": {
            "contentSize": "800px",
            "wideSize": "1000px"
        },
        "spacing": {
            "margin": false,
            "padding": false,
            "spacingSizes": [
				{
                    "name": "Extra-small",
                    "size": "0.25rem",
                    "slug": "xs"
                },
                {
                    "name": "Small",
                    "size": "0.5rem",
                    "slug": "s"
                },
                {
                    "name": "Medium",
                    "size": "1rem",
                    "slug": "m"
                },
                {
                    "name": "Large",
                    "size": "2rem",
                    "slug": "l"
                }
			],
            "units": [ "px", "em", "rem", "vh", "vw" ]
        },
        "typography": {
            "customFontSize": true,
            "fontSizes": [
				{
					"fluid": false,
					"name": "Small",
					"size": "0.9rem",
					"slug": "small"
				},
				{
					"fluid": false,
					"name": "Medium",
					"size": "1.05rem",
					"slug": "medium"
				},
				{
					"fluid": {
						"min": "1.39rem",
						"max": "1.85rem"
					},
					"name": "Large",
					"size": "1.85rem",
					"slug": "large"
				},
				{
					"fluid": {
						"min": "1.85rem",
						"max": "2.5rem"
					},
					"name": "Extra Large",
					"size": "2.5rem",
					"slug": "x-large"
				},
				{
					"fluid": {
						"min": "2.5rem",
						"max": "3.27rem"
					},
					"name": "Extra Extra Large",
					"size": "3.27rem",
					"slug": "xx-large"
				}
			]
          }
    }
}